{"content":[{"type":"text","text":"{\n  \"success\": true,\n  \"message\": \"OK\",\n  \"data\": [\n    {\n      \"id\": 591104,\n      \"account_id\": 335,\n      \"pipeline_id\": 90766,\n      \"origin_id\": null,\n      \"name\": \"Etapa 4\",\n      \"description\": null,\n      \"order\": 3,\n      \"color\": \"#c6780c\",\n      \"completion_percentage\": 0,\n      \"block_emails\": 0,\n      \"days_limit\": 0,\n      \"update_limit\": 0,\n      \"hash\": \"96912174-f1a9-4db4-86fc-fa64bfe448fa\",\n      \"created_at\": \"2025-03-13 08:12:58\",\n      \"updated_at\": \"2025-03-13 08:13:42\",\n      \"allow_win_deal\": true,\n      \"allow_create_deal\": true\n    },\n    {\n      \"id\": 591103,\n      \"account_id\": 335,\n      \"pipeline_id\": 90766,\n      \"origin_id\": null,\n      \"name\": \"Etapa 3\",\n      \"description\": null,\n      \"order\": 2,\n      \"color\": \"#410b0b\",\n      \"completion_percentage\": 0,\n      \"block_emails\": 0,\n      \"days_limit\": 0,\n      \"update_limit\": 0,\n      \"hash\": \"eaad2abc-0b80-4d32-ba7a-808d3b584a23\",\n      \"created_at\": \"2025-03-13 08:12:12\",\n      \"updated_at\": \"2025-03-13 08:13:42\",\n      \"allow_win_deal\": true,\n      \"allow_create_deal\": true\n    },\n    {\n      \"id\": 585166,\n      \"account_id\": 335,\n      \"pipeline_id\": 83892,\n      \"origin_id\": null,\n      \"name\": \"etapa 1\",\n      \"description\": null,\n      \"order\": 0,\n      \"color\": \"#cbcbcb\",\n      \"completion_percentage\": 0,\n      \"block_emails\": 0,\n      \"days_limit\": 0,\n      \"update_limit\": 0,\n      \"hash\": \"12478760-caeb-4c64-9ba0-e2d62af5c152\",\n      \"created_at\": \"2025-02-11 12:23:55\",\n      \"updated_at\": \"2025-02-24 18:49:41\",\n      \"allow_win_deal\": true,\n      \"allow_create_deal\": true\n    },\n    {\n      \"id\": 584958,\n      \"account_id\": 335,\n      \"pipeline_id\": 90766,\n      \"origin_id\": null,\n      \"name\": \"Etapa 2.0\",\n      \"description\": null,\n      \"order\": 1,\n      \"color\": \"#cbcbcb\",\n      \"completion_percentage\": 0,\n      \"block_emails\": 0,\n      \"days_limit\": 0,\n      \"update_limit\": 0,\n      \"hash\": \"6d436f28-ec1f-4bbb-9ce0-42fb2dc2d697\",\n      \"created_at\": \"2025-02-10 11:35:43\",\n      \"updated_at\": \"2025-03-13 08:12:53\",\n      \"allow_win_deal\": true,\n      \"allow_create_deal\": true\n    },\n    {\n      \"id\": 581696,\n      \"account_id\": 335,\n      \"pipeline_id\": 88251,\n      \"origin_id\": null,\n      \"name\": \"Zapier\",\n      \"description\": null,\n      \"order\": 1,\n      \"color\": \"#cbcbcb\",\n      \"completion_percentage\": 0,\n      \"block_emails\": 0,\n      \"days_limit\": 0,\n      \"update_limit\": 0,\n      \"hash\": \"42c03a9c-6fc1-4ec8-95c5-42bbcf1ebe6a\",\n      \"created_at\": \"2017-06-12 15:14:00\",\n      \"updated_at\": \"2017-06-12 15:14:00\",\n      \"allow_win_deal\": true,\n      \"allow_create_deal\": true\n    },\n    {\n      \"id\": 574744,\n      \"account_id\": 335,\n      \"pipeline_id\": 90845,\n      \"origin_id\": null,\n      \"name\": \"teste 1\",\n      \"description\": null,\n      \"order\": 0,\n      \"color\": \"#cbcbcb\",\n      \"completion_percentage\": 0,\n      \"block_emails\": 0,\n      \"days_limit\": 0,\n      \"update_limit\": 0,\n      \"hash\": \"8524d164-953f-4ab8-a42c-cdc4ee66bffa\",\n      \"created_at\": \"2017-06-12 15:14:00\",\n      \"updated_at\": \"2017-06-12 15:14:00\",\n      \"allow_win_deal\": true,\n      \"allow_create_deal\": true\n    },\n    {\n      \"id\": 574194,\n      \"account_id\": 335,\n      \"pipeline_id\": 90766,\n      \"origin_id\": null,\n      \"name\": \"Etapa 1\",\n      \"description\": null,\n      \"order\": 0,\n      \"color\": \"#cbcbcb\",\n      \"completion_percentage\": 0,\n      \"block_emails\": 0,\n      \"days_limit\": 0,\n      \"update_limit\": 0,\n      \"hash\": \"c27d0bb1-2946-449d-b2a3-9d8b9c311f88\",\n      \"created_at\": \"2017-06-12 15:14:00\",\n      \"updated_at\": \"2025-03-13 08:07:25\",\n      \"allow_win_deal\": true,\n      \"allow_create_deal\": true\n    },\n    {\n      \"id\": 572767,\n      \"account_id\": 335,\n      \"pipeline_id\": 90478,\n      \"origin_id\": null,\n      \"name\": \"Apresentação\",\n      \"description\": null,\n      \"order\": 3,\n      \"color\": \"#cbcbcb\",\n      \"completion_percentage\": 0,\n      \"block_emails\": 0,\n      \"days_limit\": 0,\n      \"update_limit\": 0,\n      \"hash\": \"35b9cf81-835c-4447-995b-4097a85dc50b\",\n      \"created_at\": \"2017-06-12 15:14:00\",\n      \"updated_at\": \"2017-06-12 15:14:00\",\n      \"allow_win_deal\": true,\n      \"allow_create_deal\": true\n    },\n    {\n      \"id\": 572766,\n      \"account_id\": 335,\n      \"pipeline_id\": 90478,\n      \"origin_id\": null,\n      \"name\": \"Follow\",\n      \"description\": null,\n      \"order\": 2,\n      \"color\": \"#cbcbcb\",\n      \"completion_percentage\": 0,\n      \"block_emails\": 0,\n      \"days_limit\": 0,\n      \"update_limit\": 0,\n      \"hash\": \"7d783b74-7f09-4519-ba49-e4827e33a9de\",\n      \"created_at\": \"2017-06-12 15:14:00\",\n      \"updated_at\": \"2017-06-12 15:14:00\",\n      \"allow_win_deal\": true,\n      \"allow_create_deal\": true\n    },\n    {\n      \"id\": 572765,\n      \"account_id\": 335,\n      \"pipeline_id\": 90478,\n      \"origin_id\": null,\n      \"name\": \"Boas vindas\",\n      \"description\": null,\n      \"order\": 1,\n      \"color\": \"#cbcbcb\",\n      \"completion_percentage\": 0,\n      \"block_emails\": 0,\n      \"days_limit\": 0,\n      \"update_limit\": 0,\n      \"hash\": \"bc454535-614f-4bed-ac13-212511d0a603\",\n      \"created_at\": \"2017-06-12 15:14:00\",\n      \"updated_at\": \"2017-06-12 15:14:00\",\n      \"allow_win_deal\": true,\n      \"allow_create_deal\": true\n    },\n    {\n      \"id\": 572764,\n      \"account_id\": 335,\n      \"pipeline_id\": 90478,\n      \"origin_id\": null,\n      \"name\": \"Entrada lead\",\n      \"description\": null,\n      \"order\": 0,\n      \"color\": \"#cbcbcb\",\n      \"completion_percentage\": 0,\n      \"block_emails\": 0,\n      \"days_limit\": 0,\n      \"update_limit\": 0,\n      \"hash\": \"aa1dc3c6-a2f8-421c-b908-cceeb5bbb657\",\n      \"created_at\": \"2017-06-12 15:14:00\",\n      \"updated_at\": \"2017-06-12 15:14:00\",\n      \"allow_win_deal\": true,\n      \"allow_create_deal\": true\n    },\n    {\n      \"id\": 572192,\n      \"account_id\": 335,\n      \"pipeline_id\": 90405,\n      \"origin_id\": null,\n      \"name\": \"Distribuição de contatos\",\n      \"description\": null,\n      \"order\": 1,\n      \"color\": \"#cbcbcb\",\n      \"completion_percentage\": 0,\n      \"block_emails\": 0,\n      \"days_limit\": 0,\n      \"update_limit\": 0,\n      \"hash\": \"61d80cf1-0c7b-4514-8d30-02c897704dc5\",\n      \"created_at\": \"2017-06-12 15:14:00\",\n      \"updated_at\": \"2017-06-12 15:14:00\",\n      \"allow_win_deal\": true,\n      \"allow_create_deal\": true\n    },\n    {\n      \"id\": 572191,\n      \"account_id\": 335,\n      \"pipeline_id\": 90405,\n      \"origin_id\": null,\n      \"name\": \"Recebimento de novo pedido\",\n      \"description\": null,\n      \"order\": 0,\n      \"color\": \"#cbcbcb\",\n      \"completion_percentage\": 0,\n      \"block_emails\": 0,\n      \"days_limit\": 0,\n      \"update_limit\": 0,\n      \"hash\": \"0b9f3d7e-9df0-4afb-af2c-1cd529de3011\",\n      \"created_at\": \"2017-06-12 15:14:00\",\n      \"updated_at\": \"2017-06-12 15:14:00\",\n      \"allow_win_deal\": true,\n      \"allow_create_deal\": true\n    },\n    {\n      \"id\": 572058,\n      \"account_id\": 335,\n      \"pipeline_id\": 90384,\n      \"origin_id\": null,\n      \"name\": \"Etapa 3\",\n      \"description\": null,\n      \"order\": 2,\n      \"color\": \"#cbcbcb\",\n      \"completion_percentage\": 0,\n      \"block_emails\": 0,\n      \"days_limit\": 0,\n      \"update_limit\": 0,\n      \"hash\": \"7051f9a7-9480-42d1-bedc-b7f7a0e5dbcf\",\n      \"created_at\": \"2017-06-12 15:14:00\",\n      \"updated_at\": \"2017-06-12 15:14:00\",\n      \"allow_win_deal\": true,\n      \"allow_create_deal\": true\n    },\n    {\n      \"id\": 572057,\n      \"account_id\": 335,\n      \"pipeline_id\": 90384,\n      \"origin_id\": null,\n      \"name\": \"Etapa 2\",\n      \"description\": null,\n      \"order\": 1,\n      \"color\": \"#cbcbcb\",\n      \"completion_percentage\": 0,\n      \"block_emails\": 0,\n      \"days_limit\": 0,\n      \"update_limit\": 0,\n      \"hash\": \"135bf9a0-f1d2-44e0-88bc-ef3b9d5c10e7\",\n      \"created_at\": \"2017-06-12 15:14:00\",\n      \"updated_at\": \"2017-06-12 15:14:00\",\n      \"allow_win_deal\": true,\n      \"allow_create_deal\": true\n    }\n  ],\n  \"meta\": {\n    \"total\": 258,\n    \"count\": 15,\n    \"per_page\": 15,\n    \"current_page\": 1,\n    \"total_pages\": 18,\n    \"links\": {\n      \"next\": \"https://api.pipe.run/v1/stages?token=e9c00ac9c6120c6afdbcba7d0db61fa9&page=2\"\n    }\n  }\n}"}]}