{"content":[{"type":"text","text":"{\n  \"success\": true,\n  \"message\": \"OK\",\n  \"data\": [\n    {\n      \"id\": 67283,\n      \"account_id\": 335,\n      \"funnel_type\": 5,\n      \"funnel_type_name\": \"Contratos\",\n      \"distribution_type\": 1,\n      \"user_id\": 36612,\n      \"name\": \"Pipeline - Contratos\",\n      \"description\": null,\n      \"order\": 0,\n      \"is_main\": true,\n      \"limit_time\": 99,\n      \"visibility\": 2,\n      \"created_at\": \"2017-06-12 15:14:00\",\n      \"updated_at\": \"2017-06-12 15:14:00\",\n      \"flags\": {\n        \"allow_talk_attendance\": true\n      }\n    },\n    {\n      \"id\": 89558,\n      \"account_id\": 335,\n      \"funnel_type\": 0,\n      \"funnel_type_name\": \"Vendas\",\n      \"distribution_type\": null,\n      \"user_id\": 83938,\n      \"name\": \"Financeiro\",\n      \"description\": null,\n      \"order\": 1,\n      \"is_main\": false,\n      \"limit_time\": 99,\n      \"visibility\": 1,\n      \"created_at\": \"2017-06-12 15:14:00\",\n      \"updated_at\": \"2017-06-12 15:14:00\",\n      \"flags\": {\n        \"allow_talk_attendance\": false\n      }\n    },\n    {\n      \"id\": 60842,\n      \"account_id\": 335,\n      \"funnel_type\": 3,\n      \"funnel_type_name\": \"Customer Success\",\n      \"distribution_type\": 1,\n      \"user_id\": 52514,\n      \"name\": \"Atendimento Suporte (Privado)\",\n      \"description\": null,\n      \"order\": 2,\n      \"is_main\": false,\n      \"limit_time\": 99,\n      \"visibility\": 1,\n      \"created_at\": \"2017-06-12 15:14:00\",\n      \"updated_at\": \"2017-06-12 15:14:00\",\n      \"flags\": {\n        \"allow_talk_attendance\": true\n      }\n    },\n    {\n      \"id\": 15534,\n      \"account_id\": 335,\n      \"funnel_type\": 0,\n      \"funnel_type_name\": \"Vendas\",\n      \"distribution_type\": null,\n      \"user_id\": 1,\n      \"name\": \"Entradas de vendas Abril\",\n      \"description\": \"Entradas de vendas Abri\",\n      \"order\": 3,\n      \"is_main\": false,\n      \"limit_time\": 99,\n      \"visibility\": 0,\n      \"created_at\": \"2017-06-12 15:14:00\",\n      \"updated_at\": \"2017-06-12 15:14:00\",\n      \"flags\": {\n        \"allow_talk_attendance\": false\n      }\n    },\n    {\n      \"id\": 3109,\n      \"account_id\": 335,\n      \"funnel_type\": 0,\n      \"funnel_type_name\": \"Vendas\",\n      \"distribution_type\": null,\n      \"user_id\": 1071,\n      \"name\": \"EXP para o Fabio\",\n      \"description\": null,\n      \"order\": 4,\n      \"is_main\": false,\n      \"limit_time\": null,\n      \"visibility\": 0,\n      \"created_at\": \"2017-06-12 15:14:00\",\n      \"updated_at\": \"2017-06-12 15:14:00\",\n      \"flags\": {\n        \"allow_talk_attendance\": false\n      }\n    },\n    {\n      \"id\": 672,\n      \"account_id\": 335,\n      \"funnel_type\": 0,\n      \"funnel_type_name\": \"Vendas\",\n      \"distribution_type\": null,\n      \"user_id\": null,\n      \"name\": \"Funil de EXP\",\n      \"description\": \"Funil de vendas principal\",\n      \"order\": 5,\n      \"is_main\": false,\n      \"limit_time\": 60,\n      \"visibility\": 0,\n      \"created_at\": \"2017-06-12 15:14:00\",\n      \"updated_at\": \"2017-06-12 15:14:00\",\n      \"flags\": {\n        \"allow_talk_attendance\": false\n      }\n    },\n    {\n      \"id\": 3198,\n      \"account_id\": 335,\n      \"funnel_type\": 0,\n      \"funnel_type_name\": \"Vendas\",\n      \"distribution_type\": null,\n      \"user_id\": 36612,\n      \"name\": \"Privado\",\n      \"description\": null,\n      \"order\": 6,\n      \"is_main\": false,\n      \"limit_time\": 0,\n      \"visibility\": 2,\n      \"created_at\": \"2017-06-12 15:14:00\",\n      \"updated_at\": \"2017-06-12 15:14:00\",\n      \"flags\": {\n        \"allow_talk_attendance\": false\n      }\n    },\n    {\n      \"id\": 2993,\n      \"account_id\": 335,\n      \"funnel_type\": 0,\n      \"funnel_type_name\": \"Vendas\",\n      \"distribution_type\": null,\n      \"user_id\": 1071,\n      \"name\": \"Funil de Vendas\",\n      \"description\": null,\n      \"order\": 7,\n      \"is_main\": false,\n      \"limit_time\": null,\n      \"visibility\": 0,\n      \"created_at\": \"2017-06-12 15:14:00\",\n      \"updated_at\": \"2017-06-12 15:14:00\",\n      \"flags\": {\n        \"allow_talk_attendance\": false\n      }\n    },\n    {\n      \"id\": 2994,\n      \"account_id\": 335,\n      \"funnel_type\": 0,\n      \"funnel_type_name\": \"Vendas\",\n      \"distribution_type\": null,\n      \"user_id\": 1071,\n      \"name\": \"Funil de Implementação\",\n      \"description\": null,\n      \"order\": 8,\n      \"is_main\": false,\n      \"limit_time\": null,\n      \"visibility\": 0,\n      \"created_at\": \"2017-06-12 15:14:00\",\n      \"updated_at\": \"2017-06-12 15:14:00\",\n      \"flags\": {\n        \"allow_talk_attendance\": false\n      }\n    },\n    {\n      \"id\": 2995,\n      \"account_id\": 335,\n      \"funnel_type\": 0,\n      \"funnel_type_name\": \"Vendas\",\n      \"distribution_type\": null,\n      \"user_id\": 1071,\n      \"name\": \"Funil de Pós-Venda\",\n      \"description\": null,\n      \"order\": 9,\n      \"is_main\": false,\n      \"limit_time\": null,\n      \"visibility\": 0,\n      \"created_at\": \"2017-06-12 15:14:00\",\n      \"updated_at\": \"2017-06-12 15:14:00\",\n      \"flags\": {\n        \"allow_talk_attendance\": false\n      }\n    },\n    {\n      \"id\": 3010,\n      \"account_id\": 335,\n      \"funnel_type\": 0,\n      \"funnel_type_name\": \"Vendas\",\n      \"distribution_type\": null,\n      \"user_id\": 1071,\n      \"name\": \"Teste Transferência\",\n      \"description\": null,\n      \"order\": 10,\n      \"is_main\": false,\n      \"limit_time\": null,\n      \"visibility\": 0,\n      \"created_at\": \"2017-06-12 15:14:00\",\n      \"updated_at\": \"2017-06-12 15:14:00\",\n      \"flags\": {\n        \"allow_talk_attendance\": false\n      }\n    },\n    {\n      \"id\": 3615,\n      \"account_id\": 335,\n      \"funnel_type\": 0,\n      \"funnel_type_name\": \"Vendas\",\n      \"distribution_type\": null,\n      \"user_id\": 1071,\n      \"name\": \"Testes da API\",\n      \"description\": null,\n      \"order\": 11,\n      \"is_main\": false,\n      \"limit_time\": 0,\n      \"visibility\": 0,\n      \"created_at\": \"2017-06-12 15:14:00\",\n      \"updated_at\": \"2017-06-12 15:14:00\",\n      \"flags\": {\n        \"allow_talk_attendance\": false\n      }\n    },\n    {\n      \"id\": 10163,\n      \"account_id\": 335,\n      \"funnel_type\": 0,\n      \"funnel_type_name\": \"Vendas\",\n      \"distribution_type\": null,\n      \"user_id\": 1071,\n      \"name\": \"Funil Jean\",\n      \"description\": \"ajuda jean\",\n      \"order\": 12,\n      \"is_main\": false,\n      \"limit_time\": null,\n      \"visibility\": 0,\n      \"created_at\": \"2017-06-12 15:14:00\",\n      \"updated_at\": \"2017-06-12 15:14:00\",\n      \"flags\": {\n        \"allow_talk_attendance\": false\n      }\n    },\n    {\n      \"id\": 24089,\n      \"account_id\": 335,\n      \"funnel_type\": 0,\n      \"funnel_type_name\": \"Vendas\",\n      \"distribution_type\": null,\n      \"user_id\": 34964,\n      \"name\": \"Novo funil teste Pam\",\n      \"description\": null,\n      \"order\": 13,\n      \"is_main\": true,\n      \"limit_time\": 99,\n      \"visibility\": 2,\n      \"created_at\": \"2017-06-12 15:14:00\",\n      \"updated_at\": \"2017-06-12 15:14:00\",\n      \"flags\": {\n        \"allow_talk_attendance\": false\n      }\n    },\n    {\n      \"id\": 24861,\n      \"account_id\": 335,\n      \"funnel_type\": 0,\n      \"funnel_type_name\": \"Vendas\",\n      \"distribution_type\": null,\n      \"user_id\": 76945,\n      \"name\": \"Funil do Yuri\",\n      \"description\": \"Era o antigo funil do verard0, agora é o funil do Yuri.\",\n      \"order\": 14,\n      \"is_main\": false,\n      \"limit_time\": 99,\n      \"visibility\": 0,\n      \"created_at\": \"2017-06-12 15:14:00\",\n      \"updated_at\": \"2017-06-12 15:14:00\",\n      \"flags\": {\n        \"allow_talk_attendance\": false\n      }\n    }\n  ],\n  \"meta\": {\n    \"total\": 58,\n    \"count\": 15,\n    \"per_page\": 15,\n    \"current_page\": 1,\n    \"total_pages\": 4,\n    \"links\": {\n      \"next\": \"https://api.pipe.run/v1/pipelines?token=e9c00ac9c6120c6afdbcba7d0db61fa9&page=2\"\n    }\n  }\n}"}]}