{"content":[{"type":"text","text":"{\n  \"success\": true,\n  \"message\": \"OK\",\n  \"data\": [\n    {\n      \"id\": 46667077,\n      \"hash\": \"k0qboaoiyk0sscgscksg4o8s8k00wsc\",\n      \"rdstation_reference\": null,\n      \"type_reference\": null,\n      \"reference\": null,\n      \"temperature\": null,\n      \"probability\": null,\n      \"account_id\": 335,\n      \"pipeline_id\": 672,\n      \"owner_id\": 53754,\n      \"stage_id\": 120228,\n      \"person_id\": null,\n      \"company_id\": 14069085,\n      \"lost_reason_id\": null,\n      \"origin_id\": 382403,\n      \"started_in_stage_id\": 120228,\n      \"created_at\": \"2025-04-01 00:31:26\",\n      \"title\": \"Atividade espontânea\",\n      \"description\": \"Atividade de visita espontânea\",\n      \"observation\": null,\n      \"status\": 0,\n      \"closed_at\": null,\n      \"reason_close\": null,\n      \"deleted\": 0,\n      \"freezed\": 0,\n      \"value\": null,\n      \"order\": 38,\n      \"updated_at\": \"2025-04-02 00:17:23\",\n      \"last_stage_updated_at\": \"2025-04-02 00:17:23\",\n      \"value_mrr\": null,\n      \"probably_closed_at\": null,\n      \"last_contact_at\": null,\n      \"stage_changed_at\": null,\n      \"frozen_at\": null,\n      \"lead_time\": 1\n    },\n    {\n      \"id\": 46667056,\n      \"hash\": \"7xlhc58mnvk0cgkgk488wgccg8ogg8g\",\n      \"rdstation_reference\": null,\n      \"type_reference\": null,\n      \"reference\": null,\n      \"temperature\": null,\n      \"probability\": null,\n      \"account_id\": 335,\n      \"pipeline_id\": 672,\n      \"owner_id\": 53754,\n      \"stage_id\": 120228,\n      \"person_id\": null,\n      \"company_id\": 14145804,\n      \"lost_reason_id\": null,\n      \"origin_id\": 382403,\n      \"started_in_stage_id\": 120228,\n      \"created_at\": \"2025-04-01 00:28:42\",\n      \"title\": \"Atividade espontânea\",\n      \"description\": \"Atividade de visita espontânea\",\n      \"observation\": null,\n      \"status\": 0,\n      \"closed_at\": null,\n      \"reason_close\": null,\n      \"deleted\": 0,\n      \"freezed\": 0,\n      \"value\": null,\n      \"order\": 37,\n      \"updated_at\": \"2025-04-01 00:28:42\",\n      \"last_stage_updated_at\": \"2025-04-01 00:28:42\",\n      \"value_mrr\": null,\n      \"probably_closed_at\": null,\n      \"last_contact_at\": \"2025-04-01 00:28:42\",\n      \"stage_changed_at\": null,\n      \"frozen_at\": null,\n      \"lead_time\": 1\n    },\n    {\n      \"id\": 46667050,\n      \"hash\": \"f9ztvrlg2jkgocc4kkwswsgcoockwck\",\n      \"rdstation_reference\": null,\n      \"type_reference\": null,\n      \"reference\": null,\n      \"temperature\": null,\n      \"probability\": null,\n      \"account_id\": 335,\n      \"pipeline_id\": 672,\n      \"owner_id\": 53754,\n      \"stage_id\": 120228,\n      \"person_id\": null,\n      \"company_id\": null,\n      \"lost_reason_id\": null,\n      \"origin_id\": 382403,\n      \"started_in_stage_id\": 120228,\n      \"created_at\": \"2025-04-01 00:27:10\",\n      \"title\": \"Atividade espontânea\",\n      \"description\": \"Atividade de visita espontânea\",\n      \"observation\": null,\n      \"status\": 0,\n      \"closed_at\": null,\n      \"reason_close\": null,\n      \"deleted\": 0,\n      \"freezed\": 0,\n      \"value\": null,\n      \"order\": 36,\n      \"updated_at\": \"2025-04-01 00:27:11\",\n      \"last_stage_updated_at\": \"2025-04-01 00:27:11\",\n      \"value_mrr\": null,\n      \"probably_closed_at\": null,\n      \"last_contact_at\": \"2025-04-01 00:27:00\",\n      \"stage_changed_at\": null,\n      \"frozen_at\": null,\n      \"lead_time\": 1\n    },\n    {\n      \"id\": 46667039,\n      \"hash\": \"3o78jrnixskkogsog4sgosgkgc4ggo8\",\n      \"rdstation_reference\": null,\n      \"type_reference\": null,\n      \"reference\": null,\n      \"temperature\": null,\n      \"probability\": null,\n      \"account_id\": 335,\n      \"pipeline_id\": 672,\n      \"owner_id\": 53754,\n      \"stage_id\": 120228,\n      \"person_id\": null,\n      \"company_id\": null,\n      \"lost_reason_id\": null,\n      \"origin_id\": 382403,\n      \"started_in_stage_id\": 120228,\n      \"created_at\": \"2025-04-01 00:24:11\",\n      \"title\": \"Atividade espontânea\",\n      \"description\": \"Atividade de visita espontânea\",\n      \"observation\": null,\n      \"status\": 0,\n      \"closed_at\": null,\n      \"reason_close\": null,\n      \"deleted\": 0,\n      \"freezed\": 0,\n      \"value\": null,\n      \"order\": 35,\n      \"updated_at\": \"2025-04-01 00:24:13\",\n      \"last_stage_updated_at\": \"2025-04-01 00:24:13\",\n      \"value_mrr\": null,\n      \"probably_closed_at\": null,\n      \"last_contact_at\": \"2025-04-01 00:24:00\",\n      \"stage_changed_at\": null,\n      \"frozen_at\": null,\n      \"lead_time\": 1\n    },\n    {\n      \"id\": 46667015,\n      \"hash\": \"mo08mk44shwgkw04k4cs04ck88wowg4\",\n      \"rdstation_reference\": null,\n      \"type_reference\": null,\n      \"reference\": null,\n      \"temperature\": null,\n      \"probability\": null,\n      \"account_id\": 335,\n      \"pipeline_id\": 672,\n      \"owner_id\": 53754,\n      \"stage_id\": 120228,\n      \"person_id\": null,\n      \"company_id\": null,\n      \"lost_reason_id\": null,\n      \"origin_id\": 382403,\n      \"started_in_stage_id\": 120228,\n      \"created_at\": \"2025-04-01 00:19:44\",\n      \"title\": \"Atividade espontânea\",\n      \"description\": \"Atividade de visita espontânea\",\n      \"observation\": null,\n      \"status\": 0,\n      \"closed_at\": null,\n      \"reason_close\": null,\n      \"deleted\": 0,\n      \"freezed\": 0,\n      \"value\": null,\n      \"order\": 34,\n      \"updated_at\": \"2025-04-01 00:19:45\",\n      \"last_stage_updated_at\": \"2025-04-01 00:19:45\",\n      \"value_mrr\": null,\n      \"probably_closed_at\": null,\n      \"last_contact_at\": \"2025-04-01 00:19:00\",\n      \"stage_changed_at\": null,\n      \"frozen_at\": null,\n      \"lead_time\": 1\n    },\n    {\n      \"id\": 46666991,\n      \"hash\": \"98kakhr9t1s8os8csoow0g848g8okkk\",\n      \"rdstation_reference\": null,\n      \"type_reference\": null,\n      \"reference\": null,\n      \"temperature\": null,\n      \"probability\": null,\n      \"account_id\": 335,\n      \"pipeline_id\": 672,\n      \"owner_id\": 53754,\n      \"stage_id\": 120228,\n      \"person_id\": null,\n      \"company_id\": 14195286,\n      \"lost_reason_id\": null,\n      \"origin_id\": 382403,\n      \"started_in_stage_id\": 120228,\n      \"created_at\": \"2025-04-01 00:12:11\",\n      \"title\": \"Atividade espontânea\",\n      \"description\": \"Atividade de visita espontânea\",\n      \"observation\": null,\n      \"status\": 0,\n      \"closed_at\": null,\n      \"reason_close\": null,\n      \"deleted\": 0,\n      \"freezed\": 0,\n      \"value\": null,\n      \"order\": 33,\n      \"updated_at\": \"2025-04-01 00:12:13\",\n      \"last_stage_updated_at\": \"2025-04-01 00:12:13\",\n      \"value_mrr\": null,\n      \"probably_closed_at\": null,\n      \"last_contact_at\": \"2025-04-01 00:10:00\",\n      \"stage_changed_at\": null,\n      \"frozen_at\": null,\n      \"lead_time\": 1\n    },\n    {\n      \"id\": 46666966,\n      \"hash\": \"t7ehrguexg0cc8gwgkww88488k0og84\",\n      \"rdstation_reference\": null,\n      \"type_reference\": null,\n      \"reference\": null,\n      \"temperature\": null,\n      \"probability\": null,\n      \"account_id\": 335,\n      \"pipeline_id\": 672,\n      \"owner_id\": 53754,\n      \"stage_id\": 120228,\n      \"person_id\": null,\n      \"company_id\": null,\n      \"lost_reason_id\": null,\n      \"origin_id\": 382403,\n      \"started_in_stage_id\": 120228,\n      \"created_at\": \"2025-04-01 00:08:40\",\n      \"title\": \"Atividade espontânea\",\n      \"description\": \"Atividade de visita espontânea\",\n      \"observation\": null,\n      \"status\": 0,\n      \"closed_at\": null,\n      \"reason_close\": null,\n      \"deleted\": 0,\n      \"freezed\": 0,\n      \"value\": null,\n      \"order\": 32,\n      \"updated_at\": \"2025-04-01 00:08:42\",\n      \"last_stage_updated_at\": \"2025-04-01 00:08:42\",\n      \"value_mrr\": null,\n      \"probably_closed_at\": null,\n      \"last_contact_at\": \"2025-04-01 00:08:00\",\n      \"stage_changed_at\": null,\n      \"frozen_at\": null,\n      \"lead_time\": 1\n    },\n    {\n      \"id\": 46666954,\n      \"hash\": \"m5k18vde4kgg4w0cok8o800wgg40s88\",\n      \"rdstation_reference\": null,\n      \"type_reference\": null,\n      \"reference\": null,\n      \"temperature\": null,\n      \"probability\": null,\n      \"account_id\": 335,\n      \"pipeline_id\": 672,\n      \"owner_id\": 53754,\n      \"stage_id\": 120228,\n      \"person_id\": null,\n      \"company_id\": null,\n      \"lost_reason_id\": null,\n      \"origin_id\": 382403,\n      \"started_in_stage_id\": 120228,\n      \"created_at\": \"2025-04-01 00:05:17\",\n      \"title\": \"Atividade espontânea\",\n      \"description\": \"Atividade de visita espontânea\",\n      \"observation\": null,\n      \"status\": 0,\n      \"closed_at\": null,\n      \"reason_close\": null,\n      \"deleted\": 0,\n      \"freezed\": 0,\n      \"value\": null,\n      \"order\": 31,\n      \"updated_at\": \"2025-04-02 00:17:51\",\n      \"last_stage_updated_at\": \"2025-04-02 00:17:51\",\n      \"value_mrr\": null,\n      \"probably_closed_at\": null,\n      \"last_contact_at\": \"2025-04-01 00:04:00\",\n      \"stage_changed_at\": null,\n      \"frozen_at\": null,\n      \"lead_time\": 1\n    },\n    {\n      \"id\": 46666944,\n      \"hash\": \"aownl1nnckggc4k840ss40k8s44cccs\",\n      \"rdstation_reference\": null,\n      \"type_reference\": null,\n      \"reference\": null,\n      \"temperature\": null,\n      \"probability\": null,\n      \"account_id\": 335,\n      \"pipeline_id\": 672,\n      \"owner_id\": 53754,\n      \"stage_id\": 120228,\n      \"person_id\": null,\n      \"company_id\": null,\n      \"lost_reason_id\": null,\n      \"origin_id\": 382403,\n      \"started_in_stage_id\": 120228,\n      \"created_at\": \"2025-04-01 00:02:47\",\n      \"title\": \"Atividade espontânea\",\n      \"description\": \"Atividade de visita espontânea\",\n      \"observation\": null,\n      \"status\": 0,\n      \"closed_at\": null,\n      \"reason_close\": null,\n      \"deleted\": 0,\n      \"freezed\": 0,\n      \"value\": null,\n      \"order\": 30,\n      \"updated_at\": \"2025-04-01 00:02:50\",\n      \"last_stage_updated_at\": \"2025-04-01 00:02:50\",\n      \"value_mrr\": null,\n      \"probably_closed_at\": null,\n      \"last_contact_at\": \"2025-04-01 00:02:00\",\n      \"stage_changed_at\": null,\n      \"frozen_at\": null,\n      \"lead_time\": 1\n    },\n    {\n      \"id\": 46666917,\n      \"hash\": \"jodsmpkrt1k4gs4840skggc048wo4ss\",\n      \"rdstation_reference\": null,\n      \"type_reference\": null,\n      \"reference\": null,\n      \"temperature\": null,\n      \"probability\": null,\n      \"account_id\": 335,\n      \"pipeline_id\": 672,\n      \"owner_id\": 53754,\n      \"stage_id\": 120228,\n      \"person_id\": null,\n      \"company_id\": 13008133,\n      \"lost_reason_id\": null,\n      \"origin_id\": 382403,\n      \"started_in_stage_id\": 120228,\n      \"created_at\": \"2025-03-31 23:56:12\",\n      \"title\": \"Atividade espontânea\",\n      \"description\": \"Atividade de visita espontânea\",\n      \"observation\": null,\n      \"status\": 0,\n      \"closed_at\": null,\n      \"reason_close\": null,\n      \"deleted\": 0,\n      \"freezed\": 0,\n      \"value\": null,\n      \"order\": 29,\n      \"updated_at\": \"2025-03-31 23:56:13\",\n      \"last_stage_updated_at\": \"2025-03-31 23:56:13\",\n      \"value_mrr\": null,\n      \"probably_closed_at\": null,\n      \"last_contact_at\": \"2025-03-31 23:55:00\",\n      \"stage_changed_at\": null,\n      \"frozen_at\": null,\n      \"lead_time\": 2\n    },\n    {\n      \"id\": 46666912,\n      \"hash\": \"dt4jifjcds00ggw4wkok8k0skw44o0o\",\n      \"rdstation_reference\": null,\n      \"type_reference\": null,\n      \"reference\": null,\n      \"temperature\": null,\n      \"probability\": null,\n      \"account_id\": 335,\n      \"pipeline_id\": 672,\n      \"owner_id\": 53754,\n      \"stage_id\": 120228,\n      \"person_id\": 22452612,\n      \"company_id\": null,\n      \"lost_reason_id\": null,\n      \"origin_id\": 382403,\n      \"started_in_stage_id\": 120228,\n      \"created_at\": \"2025-03-31 23:55:29\",\n      \"title\": \"Atividade espontânea\",\n      \"description\": \"Atividade de visita espontânea\",\n      \"observation\": null,\n      \"status\": 0,\n      \"closed_at\": null,\n      \"reason_close\": null,\n      \"deleted\": 0,\n      \"freezed\": 0,\n      \"value\": null,\n      \"order\": 28,\n      \"updated_at\": \"2025-03-31 23:55:29\",\n      \"last_stage_updated_at\": \"2025-03-31 23:55:29\",\n      \"value_mrr\": null,\n      \"probably_closed_at\": null,\n      \"last_contact_at\": \"2025-03-31 23:55:00\",\n      \"stage_changed_at\": null,\n      \"frozen_at\": null,\n      \"lead_time\": 2\n    },\n    {\n      \"id\": 46653984,\n      \"hash\": \"qgijzd5itf4sgs8sw80c8s88k4480g0\",\n      \"rdstation_reference\": null,\n      \"type_reference\": 6,\n      \"reference\": null,\n      \"temperature\": null,\n      \"probability\": null,\n      \"account_id\": 335,\n      \"pipeline_id\": 88411,\n      \"owner_id\": 36612,\n      \"stage_id\": 557583,\n      \"person_id\": 35308628,\n      \"company_id\": 18746384,\n      \"lost_reason_id\": null,\n      \"origin_id\": null,\n      \"started_in_stage_id\": 557583,\n      \"created_at\": \"2025-03-31 14:58:01\",\n      \"title\": \"Atendimento - 2025031115569 - Scherman Paris\",\n      \"description\": null,\n      \"observation\": null,\n      \"status\": 0,\n      \"closed_at\": null,\n      \"reason_close\": null,\n      \"deleted\": 0,\n      \"freezed\": 0,\n      \"value\": null,\n      \"order\": 13,\n      \"updated_at\": \"2025-03-31 16:28:19\",\n      \"last_stage_updated_at\": \"2025-03-31 16:28:19\",\n      \"value_mrr\": null,\n      \"probably_closed_at\": null,\n      \"last_contact_at\": null,\n      \"stage_changed_at\": null,\n      \"frozen_at\": null,\n      \"lead_time\": 2\n    },\n    {\n      \"id\": 46582832,\n      \"hash\": \"g317etkpujkggcwcggo0s04cooswo0\",\n      \"rdstation_reference\": null,\n      \"type_reference\": null,\n      \"reference\": null,\n      \"temperature\": null,\n      \"probability\": null,\n      \"account_id\": 335,\n      \"pipeline_id\": 672,\n      \"owner_id\": 53754,\n      \"stage_id\": 120228,\n      \"person_id\": null,\n      \"company_id\": null,\n      \"lost_reason_id\": null,\n      \"origin_id\": 382403,\n      \"started_in_stage_id\": 120228,\n      \"created_at\": \"2025-03-28 09:35:30\",\n      \"title\": \"Atividade espontânea\",\n      \"description\": \"Atividade de visita espontânea\",\n      \"observation\": null,\n      \"status\": 0,\n      \"closed_at\": null,\n      \"reason_close\": null,\n      \"deleted\": 0,\n      \"freezed\": 0,\n      \"value\": null,\n      \"order\": 27,\n      \"updated_at\": \"2025-03-28 09:35:30\",\n      \"last_stage_updated_at\": \"2025-03-28 09:35:30\",\n      \"value_mrr\": null,\n      \"probably_closed_at\": null,\n      \"last_contact_at\": null,\n      \"stage_changed_at\": null,\n      \"frozen_at\": null,\n      \"lead_time\": 5\n    },\n    {\n      \"id\": 46571990,\n      \"hash\": \"1kguduhnbgm8kocwo48wgs08k0k4g4o\",\n      \"rdstation_reference\": null,\n      \"type_reference\": null,\n      \"reference\": null,\n      \"temperature\": null,\n      \"probability\": null,\n      \"account_id\": 335,\n      \"pipeline_id\": 672,\n      \"owner_id\": 53754,\n      \"stage_id\": 120228,\n      \"person_id\": null,\n      \"company_id\": null,\n      \"lost_reason_id\": null,\n      \"origin_id\": 382403,\n      \"started_in_stage_id\": 120228,\n      \"created_at\": \"2025-03-27 17:58:06\",\n      \"title\": \"Atividade espontânea\",\n      \"description\": \"Atividade de visita espontânea\",\n      \"observation\": null,\n      \"status\": 0,\n      \"closed_at\": null,\n      \"reason_close\": null,\n      \"deleted\": 0,\n      \"freezed\": 0,\n      \"value\": null,\n      \"order\": 26,\n      \"updated_at\": \"2025-03-27 17:58:07\",\n      \"last_stage_updated_at\": \"2025-03-27 17:58:07\",\n      \"value_mrr\": null,\n      \"probably_closed_at\": null,\n      \"last_contact_at\": null,\n      \"stage_changed_at\": null,\n      \"frozen_at\": null,\n      \"lead_time\": 6\n    },\n    {\n      \"id\": 46571979,\n      \"hash\": \"o1xkpu8czeo44ko880c4ogoc8c8o088\",\n      \"rdstation_reference\": null,\n      \"type_reference\": null,\n      \"reference\": null,\n      \"temperature\": null,\n      \"probability\": null,\n      \"account_id\": 335,\n      \"pipeline_id\": 672,\n      \"owner_id\": 53754,\n      \"stage_id\": 120228,\n      \"person_id\": null,\n      \"company_id\": null,\n      \"lost_reason_id\": null,\n      \"origin_id\": 382403,\n      \"started_in_stage_id\": 120228,\n      \"created_at\": \"2025-03-27 17:57:35\",\n      \"title\": \"Atividade espontânea\",\n      \"description\": \"Atividade de visita espontânea\",\n      \"observation\": null,\n      \"status\": 0,\n      \"closed_at\": null,\n      \"reason_close\": null,\n      \"deleted\": 0,\n      \"freezed\": 0,\n      \"value\": null,\n      \"order\": 25,\n      \"updated_at\": \"2025-03-27 17:57:36\",\n      \"last_stage_updated_at\": \"2025-03-27 17:57:36\",\n      \"value_mrr\": null,\n      \"probably_closed_at\": null,\n      \"last_contact_at\": \"2025-03-27 19:05:00\",\n      \"stage_changed_at\": null,\n      \"frozen_at\": null,\n      \"lead_time\": 6\n    }\n  ],\n  \"meta\": {\n    \"total\": 471632,\n    \"count\": 15,\n    \"per_page\": 15,\n    \"current_page\": 1,\n    \"total_pages\": 31443,\n    \"links\": {\n      \"next\": \"https://api.pipe.run/v1/deals?token=e9c00ac9c6120c6afdbcba7d0db61fa9&page=2\"\n    }\n  }\n}"}]}