{"content":[{"type":"text","text":"{\n  \"success\": true,\n  \"message\": \"OK\",\n  \"data\": [\n    {\n      \"id\": 4860826,\n      \"account_id\": 335,\n      \"category_id\": null,\n      \"name\": \"Teclado Mecânico PAM\",\n      \"description\": \"\",\n      \"minimum_value\": null,\n      \"cost\": null,\n      \"reference\": null,\n      \"type\": 0,\n      \"deleted\": 1,\n      \"status\": true,\n      \"photo\": \"https://assets.pipe.run/account/335/product/4860826/logo/gi1kk7wd6u8ksw0wc4gggsg4804kk4k.png\",\n      \"commission\": null,\n      \"brand_id\": 563274,\n      \"ipi_tax\": null,\n      \"measurement_unit_id\": null,\n      \"code\": null,\n      \"fix_commission_value\": null,\n      \"is_product_belong_deal\": true,\n      \"created_at\": \"2025-02-25 10:34:38\",\n      \"updated_at\": \"2025-03-18 12:13:04\"\n    },\n    {\n      \"id\": 4860825,\n      \"account_id\": 335,\n      \"category_id\": null,\n      \"name\": \"Teclado Mecânico 84.60756771443745%\",\n      \"description\": \"\",\n      \"minimum_value\": null,\n      \"cost\": null,\n      \"reference\": null,\n      \"type\": 0,\n      \"deleted\": 0,\n      \"status\": false,\n      \"photo\": null,\n      \"commission\": null,\n      \"brand_id\": null,\n      \"ipi_tax\": null,\n      \"measurement_unit_id\": null,\n      \"code\": null,\n      \"fix_commission_value\": null,\n      \"is_product_belong_deal\": true,\n      \"created_at\": \"2025-02-25 10:32:39\",\n      \"updated_at\": \"2025-02-25 10:32:39\"\n    },\n    {\n      \"id\": 4860824,\n      \"account_id\": 335,\n      \"category_id\": null,\n      \"name\": \"Teclado Mecânico 1.1297550456891736%\",\n      \"description\": \"\",\n      \"minimum_value\": null,\n      \"cost\": null,\n      \"reference\": null,\n      \"type\": 0,\n      \"deleted\": 0,\n      \"status\": false,\n      \"photo\": null,\n      \"commission\": null,\n      \"brand_id\": null,\n      \"ipi_tax\": null,\n      \"measurement_unit_id\": null,\n      \"code\": null,\n      \"fix_commission_value\": null,\n      \"is_product_belong_deal\": false,\n      \"created_at\": \"2025-02-25 10:29:56\",\n      \"updated_at\": \"2025-02-25 10:29:56\"\n    },\n    {\n      \"id\": 4860823,\n      \"account_id\": 335,\n      \"category_id\": null,\n      \"name\": \"Teclado Mecânico 60.3679529436165%\",\n      \"description\": \"\",\n      \"minimum_value\": null,\n      \"cost\": null,\n      \"reference\": null,\n      \"type\": 0,\n      \"deleted\": 0,\n      \"status\": false,\n      \"photo\": null,\n      \"commission\": null,\n      \"brand_id\": null,\n      \"ipi_tax\": null,\n      \"measurement_unit_id\": null,\n      \"code\": null,\n      \"fix_commission_value\": null,\n      \"is_product_belong_deal\": true,\n      \"created_at\": \"2025-02-25 10:29:11\",\n      \"updated_at\": \"2025-02-25 10:29:11\"\n    },\n    {\n      \"id\": 4860822,\n      \"account_id\": 335,\n      \"category_id\": null,\n      \"name\": \"Teclado Mecânico 7.954357741815743%\",\n      \"description\": \"\",\n      \"minimum_value\": null,\n      \"cost\": null,\n      \"reference\": null,\n      \"type\": 0,\n      \"deleted\": 0,\n      \"status\": false,\n      \"photo\": null,\n      \"commission\": null,\n      \"brand_id\": null,\n      \"ipi_tax\": null,\n      \"measurement_unit_id\": null,\n      \"code\": null,\n      \"fix_commission_value\": null,\n      \"is_product_belong_deal\": false,\n      \"created_at\": \"2025-02-25 10:28:35\",\n      \"updated_at\": \"2025-02-25 10:28:35\"\n    },\n    {\n      \"id\": 4860821,\n      \"account_id\": 335,\n      \"category_id\": null,\n      \"name\": \"Teclado Mecânico 80.25413292201063%\",\n      \"description\": \"\",\n      \"minimum_value\": null,\n      \"cost\": null,\n      \"reference\": null,\n      \"type\": 0,\n      \"deleted\": 0,\n      \"status\": false,\n      \"photo\": null,\n      \"commission\": null,\n      \"brand_id\": null,\n      \"ipi_tax\": null,\n      \"measurement_unit_id\": null,\n      \"code\": null,\n      \"fix_commission_value\": null,\n      \"is_product_belong_deal\": false,\n      \"created_at\": \"2025-02-25 10:27:40\",\n      \"updated_at\": \"2025-02-25 10:27:40\"\n    },\n    {\n      \"id\": 4860820,\n      \"account_id\": 335,\n      \"category_id\": null,\n      \"name\": \"Teclado Mecânico 92.87353434354803%\",\n      \"description\": \"\",\n      \"minimum_value\": null,\n      \"cost\": null,\n      \"reference\": null,\n      \"type\": 0,\n      \"deleted\": 0,\n      \"status\": false,\n      \"photo\": null,\n      \"commission\": null,\n      \"brand_id\": null,\n      \"ipi_tax\": null,\n      \"measurement_unit_id\": null,\n      \"code\": null,\n      \"fix_commission_value\": null,\n      \"is_product_belong_deal\": false,\n      \"created_at\": \"2025-02-25 10:27:09\",\n      \"updated_at\": \"2025-02-25 10:27:09\"\n    },\n    {\n      \"id\": 4801637,\n      \"account_id\": 335,\n      \"category_id\": null,\n      \"name\": \"ADITIVADA\",\n      \"description\": \"\",\n      \"minimum_value\": \"7.0000\",\n      \"cost\": \"5.0000\",\n      \"reference\": null,\n      \"type\": 0,\n      \"deleted\": 0,\n      \"status\": false,\n      \"photo\": null,\n      \"commission\": null,\n      \"brand_id\": null,\n      \"ipi_tax\": null,\n      \"measurement_unit_id\": 1801,\n      \"code\": null,\n      \"fix_commission_value\": null,\n      \"is_product_belong_deal\": true,\n      \"created_at\": \"2025-02-11 17:24:41\",\n      \"updated_at\": \"2025-02-11 17:24:52\"\n    },\n    {\n      \"id\": 4798563,\n      \"account_id\": 335,\n      \"category_id\": null,\n      \"name\": \"Teclado Mecânico 32.83894627335322%\",\n      \"description\": \"\",\n      \"minimum_value\": null,\n      \"cost\": null,\n      \"reference\": null,\n      \"type\": 0,\n      \"deleted\": 0,\n      \"status\": false,\n      \"photo\": null,\n      \"commission\": null,\n      \"brand_id\": null,\n      \"ipi_tax\": null,\n      \"measurement_unit_id\": null,\n      \"code\": null,\n      \"fix_commission_value\": null,\n      \"is_product_belong_deal\": false,\n      \"created_at\": \"2017-06-12 15:14:00\",\n      \"updated_at\": \"2017-06-12 15:14:00\"\n    },\n    {\n      \"id\": 4798559,\n      \"account_id\": 335,\n      \"category_id\": null,\n      \"name\": \"Teclado Mecânico 44.99256182865192%\",\n      \"description\": \"\",\n      \"minimum_value\": null,\n      \"cost\": null,\n      \"reference\": null,\n      \"type\": 0,\n      \"deleted\": 0,\n      \"status\": false,\n      \"photo\": null,\n      \"commission\": null,\n      \"brand_id\": null,\n      \"ipi_tax\": null,\n      \"measurement_unit_id\": null,\n      \"code\": null,\n      \"fix_commission_value\": null,\n      \"is_product_belong_deal\": false,\n      \"created_at\": \"2017-06-12 15:14:00\",\n      \"updated_at\": \"2017-06-12 15:14:00\"\n    },\n    {\n      \"id\": 4794016,\n      \"account_id\": 335,\n      \"category_id\": null,\n      \"name\": \"Teclado Mecânico 93.43114974536269%\",\n      \"description\": \"\",\n      \"minimum_value\": null,\n      \"cost\": null,\n      \"reference\": null,\n      \"type\": 0,\n      \"deleted\": 0,\n      \"status\": false,\n      \"photo\": null,\n      \"commission\": null,\n      \"brand_id\": null,\n      \"ipi_tax\": null,\n      \"measurement_unit_id\": null,\n      \"code\": null,\n      \"fix_commission_value\": null,\n      \"is_product_belong_deal\": false,\n      \"created_at\": \"2017-06-12 15:14:00\",\n      \"updated_at\": \"2017-06-12 15:14:00\"\n    },\n    {\n      \"id\": 4794014,\n      \"account_id\": 335,\n      \"category_id\": null,\n      \"name\": \"Teclado Mecânico 77.97005601109748%\",\n      \"description\": \"\",\n      \"minimum_value\": null,\n      \"cost\": null,\n      \"reference\": null,\n      \"type\": 0,\n      \"deleted\": 0,\n      \"status\": false,\n      \"photo\": null,\n      \"commission\": null,\n      \"brand_id\": null,\n      \"ipi_tax\": null,\n      \"measurement_unit_id\": null,\n      \"code\": null,\n      \"fix_commission_value\": null,\n      \"is_product_belong_deal\": false,\n      \"created_at\": \"2017-06-12 15:14:00\",\n      \"updated_at\": \"2017-06-12 15:14:00\"\n    },\n    {\n      \"id\": 4794011,\n      \"account_id\": 335,\n      \"category_id\": null,\n      \"name\": \"Teclado Mecânico 57.42374297315686%\",\n      \"description\": \"\",\n      \"minimum_value\": null,\n      \"cost\": null,\n      \"reference\": null,\n      \"type\": 0,\n      \"deleted\": 0,\n      \"status\": false,\n      \"photo\": null,\n      \"commission\": null,\n      \"brand_id\": null,\n      \"ipi_tax\": null,\n      \"measurement_unit_id\": null,\n      \"code\": null,\n      \"fix_commission_value\": null,\n      \"is_product_belong_deal\": false,\n      \"created_at\": \"2017-06-12 15:14:00\",\n      \"updated_at\": \"2017-06-12 15:14:00\"\n    },\n    {\n      \"id\": 4794010,\n      \"account_id\": 335,\n      \"category_id\": null,\n      \"name\": \"Teclado Mecânico 57.855853456137375%\",\n      \"description\": \"\",\n      \"minimum_value\": null,\n      \"cost\": null,\n      \"reference\": null,\n      \"type\": 0,\n      \"deleted\": 0,\n      \"status\": false,\n      \"photo\": null,\n      \"commission\": null,\n      \"brand_id\": null,\n      \"ipi_tax\": null,\n      \"measurement_unit_id\": null,\n      \"code\": null,\n      \"fix_commission_value\": null,\n      \"is_product_belong_deal\": false,\n      \"created_at\": \"2017-06-12 15:14:00\",\n      \"updated_at\": \"2017-06-12 15:14:00\"\n    },\n    {\n      \"id\": 4793900,\n      \"account_id\": 335,\n      \"category_id\": null,\n      \"name\": \"Teclado Mecânico 77.29573691478993%\",\n      \"description\": \"\",\n      \"minimum_value\": null,\n      \"cost\": null,\n      \"reference\": null,\n      \"type\": 0,\n      \"deleted\": 0,\n      \"status\": false,\n      \"photo\": null,\n      \"commission\": null,\n      \"brand_id\": null,\n      \"ipi_tax\": null,\n      \"measurement_unit_id\": null,\n      \"code\": null,\n      \"fix_commission_value\": null,\n      \"is_product_belong_deal\": false,\n      \"created_at\": \"2017-06-12 15:14:00\",\n      \"updated_at\": \"2017-06-12 15:14:00\"\n    }\n  ],\n  \"meta\": {\n    \"total\": 20202,\n    \"count\": 15,\n    \"per_page\": 15,\n    \"current_page\": 1,\n    \"total_pages\": 1347,\n    \"links\": {\n      \"next\": \"https://api.pipe.run/v1/items?token=e9c00ac9c6120c6afdbcba7d0db61fa9&page=2\"\n    }\n  }\n}"}]}